mars_pet
…
#Monthly Time series data prediction

#create dataset for manufacturer id and monthly data aggregate
manu_mars <- rawdata |> filter(MANU_ID == "MARS") |> 
                        mutate(DATE = yearmonth(DATE)) |>
                        mutate(transaction = PRICE*UNITS) |>  
                        group_by(DATE) |>
                        summarise(transaction = sum(transaction))

manu_mars_monthly_tsibble <- as_tsibble(manu_mars, index = "DATE")
manu_mars_monthly_tsibble

## # A tsibble: 42 x 2 [1M]
##        DATE transaction
##       <mth>       <dbl>
##  1 2019 Jul       256. 
##  2 2019 Aug       188. 
##  3 2019 Sep       205. 
##  4 2019 Oct       148. 
##  5 2019 Nov        96.8
##  6 2019 Dec       198. 
##  7 2020 Jan       114. 
##  8 2020 Feb        78.9
##  9 2020 Mar       231. 
## 10 2020 Apr        82.9
## #  32 more rows
…
augment(arima_fit) |> filter(.model == "arima013") |> features(.innov, ljung_box, lag = 10, dof = 3)

## # A tibble: 1  3
##   .model   lb_stat lb_pvalue
##   <chr>      <dbl>     <dbl>
## 1 arima013    5.33     0.620

A portmanteau test (setting K=3, because p+q =3) returns a large
p-value, also suggesting that the residuals are white noise. Then we can
make predictions now

forecast_arima <- arima_fit |> forecast(h= "2 years") |> filter(.model=='arima013')
augment(arima_fit)

## # A tsibble: 246 x 6 [1M]
## # Key:       .model [6]
##    .model       DATE transaction .fitted    .resid    .innov
##    <chr>       <mth>       <dbl>   <dbl>     <dbl>     <dbl>
##  1 arima110 2019 Aug       -68.3  -68.3    -0.0683   -0.0683
##  2 arima110 2019 Sep        17.5  -40.7    58.2      58.2   
##  3 arima110 2019 Oct       -57.3  -41.7   -15.5     -15.5   
##  4 arima110 2019 Nov       -51.2  -10.6   -40.6     -40.6   
##  5 arima110 2019 Dec       101.   -42.1   143.      143.    
##  6 arima110 2020 Jan       -83.5   -9.47  -74.0     -74.0   
##  7 arima110 2020 Feb       -35.2   36.2   -71.4     -71.4   
##  8 arima110 2020 Mar       152.   -51.7   204.      204.    
##  9 arima110 2020 Apr      -148.    13.8  -162.     -162.    
## 10 arima110 2020 May        92.7   53.8    38.9      38.9   
## #  236 more rows
…
